{
  "main": {
    "id": "ea1d61b515cc068b",
    "type": "split",
    "children": [
      {
        "id": "55f81fb0f0c105cb",
        "type": "tabs",
        "children": [
          {
            "id": "80c5a0eb85aec3d3",
            "type": "leaf",
            "state": {
              "type": "markdown",
              "state": {
                "file": "src/SUMMARY.md",
                "mode": "source",
                "source": false
              }
            }
          },
          {
            "id": "8583da312a2066b2",
            "type": "leaf",
            "state": {
              "type": "markdown",
              "state": {
                "file": "src/Dropping Down.md",
                "mode": "source",
                "source": false
              }
            }
          }
        ],
        "currentTab": 1
      }
    ],
    "direction": "vertical"
  },
  "left": {
    "id": "c3f67a91938a82e2",
    "type": "split",
    "children": [
      {
        "id": "ed2ce53d4e656fa5",
        "type": "tabs",
        "children": [
          {
            "id": "998232bc00f3e247",
            "type": "leaf",
            "state": {
              "type": "file-explorer",
              "state": {
                "sortOrder": "alphabetical"
              }
            }
          },
          {
            "id": "b74550dbae9d1475",
            "type": "leaf",
            "state": {
              "type": "search",
              "state": {
                "query": "",
                "matchingCase": false,
                "explainSearch": false,
                "collapseAll": false,
                "extraContext": false,
                "sortOrder": "alphabetical"
              }
            }
          },
          {
            "id": "19ed1ce6f01900cb",
            "type": "leaf",
            "state": {
              "type": "starred",
              "state": {}
            }
          }
        ]
      }
    ],
    "direction": "horizontal",
    "width": 300
  },
  "right": {
    "id": "7f0a8decd445e3bc",
    "type": "split",
    "children": [
      {
        "id": "c20fcd9cee0cb030",
        "type": "tabs",
        "children": [
          {
            "id": "dc9eb2fc6528c904",
            "type": "leaf",
            "state": {
              "type": "backlink",
              "state": {
                "file": "src/Dropping Down.md",
                "collapseAll": false,
                "extraContext": false,
                "sortOrder": "alphabetical",
                "showSearch": false,
                "searchQuery": "",
                "backlinkCollapsed": false,
                "unlinkedCollapsed": true
              }
            }
          },
          {
            "id": "15e0e609e553bc5f",
            "type": "leaf",
            "state": {
              "type": "outgoing-link",
              "state": {
                "file": "src/Dropping Down.md",
                "linksCollapsed": false,
                "unlinkedCollapsed": true
              }
            }
          },
          {
            "id": "b7782482f454d13d",
            "type": "leaf",
            "state": {
              "type": "tag",
              "state": {
                "sortOrder": "frequency",
                "useHierarchy": true
              }
            }
          },
          {
            "id": "0b996bd74894b64f",
            "type": "leaf",
            "state": {
              "type": "outline",
              "state": {
                "file": "src/Dropping Down.md"
              }
            }
          }
        ]
      }
    ],
    "direction": "horizontal",
    "width": 300,
    "collapsed": true
  },
  "ribbon": {
    "mostRecentAction": ""
  },
  "active": "8583da312a2066b2",
  "lastOpenFiles": [
    "src/SUMMARY.md",
    "src/Dropping Down.md",
    "src/chapter_1.md",
    "src/chapter_0.md",
    "QQ图片20221018220050.jpg",
    "QQ图片20221018220044.jpg",
    "QQ图片20221018220030.jpg",
    "QQ图片20221018220041.jpg"
  ]
}